Stand_BandlyLeggedLevel3Range,GreaterOrEqual,0,Less,PLUS_INFINITY
Stand_BandlyLeggedLevel2Range,GreaterOrEqual,0,Less,0
Stand_BandlyLeggedLevel1Range,GreaterOrEqual,0,Less,0
Stand_NormalLegRange,Greater,0,Less,0
Stand_CrossLeggedLevel1Range,Greater,0,LessOrEqual,0
Stand_CrossLeggedLevel2Range,Greater,0,LessOrEqual,0
Stand_CrossLeggedLevel3Range,Greater,MINUS_INFINITY,LessOrEqual,0

Kneedown_BandlyLeggedLevel2Range,GreaterOrEqual,0,Less,PLUS_INFINITY
Kneedown_BandlyLeggedLevel1Range,GreaterOrEqual,0,Less,0
Kneedown_NormalLegRange,Greater,0,Less,0
Kneedown_CrossLeggedLevel1Range,Greater,0,LessOrEqual,0
Kneedown_CrossLeggedLevel2Range,Greater,MINUS_INFINITY,LessOrEqual,0

HipRightLevel2Range,GreaterOrEqual,0,Less,PLUS_INFINITY
HipRightLevel1Range,GreaterOrEqual,0,Less,0
HipNormalRange,Greater,0,Less,0
HipLeftLevel1Range,Greater,0,LessOrEqual,0
HipLeftLevel2Range,Greater,MINUS_INFINITY,LessOrEqual,0

CenterRightLevel1_2Range,GreaterOrEqual,0,Less,PLUS_INFINITY
CenterRightLevel1_1Range,GreaterOrEqual,0,Less,0
CenterNormalRange,Greater,0,Less,0
CenterLeftLevel1_1Range,Greater,0,LessOrEqual,0
CenterLeftLevel1_2Range,Greater,MINUS_INFINITY,LessOrEqual,0

FrontUpperCenterLeftLevel2Range,GreaterOrEqual,0,Less,PLUS_INFINITY
FrontUpperCenterLeftLevel1Range,GreaterOrEqual,0,Less,0
FrontUpperCenterNormalRange,Greater,0,Less,0
FrontUpperCenterRightLevel1Range,Greater,0,LessOrEqual,0
FrontUpperCenterRightLevel2Range,Greater,MINUS_INFINITY,LessOrEqual,0

ShoulderLeftLevel2Range,GreaterOrEqual,0,Less,PLUS_INFINITY
ShoulderLeftLevel1Range,GreaterOrEqual,0,Less,0
ShoulderNormalRange,Greater,0,Less,0
ShoulderRightLevel1Range,Greater,0,LessOrEqual,0
ShoulderRightLevel2Range,Greater,MINUS_INFINITY,LessOrEqual,0

HeadLeftLevel2Range,GreaterOrEqual,0,Less,PLUS_INFINITY
HeadLeftLevelNot2Range,Greater,MINUS_INFINITY,Less,0
HeadLeftLevel1Range,GreaterOrEqual,0,Less,0
HeadNormalRange,Greater,0,Less,0
HeadRightLevel1Range,Greater,0,LessOrEqual,0
HeadRightLevel2Range,Greater,MINUS_INFINITY,LessOrEqual,0
HeadRightLevelNot2Range,Greater,0,Less,PLUS_INFINITY

EarLeftLevel2Range,GreaterOrEqual,0,Less,PLUS_INFINITY
EarLeftLevelNot2Range,Greater,MINUS_INFINITY,Less,0
EarLeftLevel1Range,GreaterOrEqual,0,Less,0
EarNormalRange,Greater,0,Less,0
EarRightLevel1Range,Greater,0,LessOrEqual,0
EarRightLevel2Range,Greater,MINUS_INFINITY,LessOrEqual,0
EarRightLevelNot2Range,Greater,0,Less,PLUS_INFINITY

SideUpperCenterForwardLevel2Range,GreaterOrEqual,0,Less,PLUS_INFINITY
SideUpperCenterForwardLevel1Range,GreaterOrEqual,0,Less,0
SideUpperCenterNormalRange,Greater,0,Less,0
SideUpperCenterBackwardLevel1Range,Greater,0,LessOrEqual,0
SideUpperCenterBackwardLevel2Range,Greater,MINUS_INFINITY,LessOrEqual,0

NeckForwardLeaningLevel1Range,GreaterOrEqual,0,Less,PLUS_INFINITY
NeckForwardLeaningLevel0Range,Greater,MINUS_INFINITY,Less,0

SideShoulderEarStoopRange,GreaterOrEqual,0,Less,PLUS_INFINITY
SideShoulderEarNormalRange,Greater,MINUS_INFINITY,Less,0
SidePelvisBendBackwardRange,GreaterOrEqual,0,Less,PLUS_INFINITY
SidePelvisNotBendBackwardRange,Greater,MINUS_INFINITY,Less,0
SidePelvisNormalRange,Greater,0,Less,0
SidePelvisFlatbackRange,Greater,MINUS_INFINITY,LessOrEqual,0
